// Jest Snapshot v1, https://goo.gl/fbAQLP

exports[`does not render without OAuth Token 1`] = `null`;

exports[`renders form dialog 1`] = `
<div>
  <button
    className="MuiButtonBase-root-27 MuiButton-root-1 MuiButton-text-3 MuiButton-flat-6"
    disabled={false}
    onBlur={[Function]}
    onClick={[Function]}
    onContextMenu={[Function]}
    onFocus={[Function]}
    onKeyDown={[Function]}
    onKeyUp={[Function]}
    onMouseDown={[Function]}
    onMouseLeave={[Function]}
    onMouseUp={[Function]}
    onTouchEnd={[Function]}
    onTouchMove={[Function]}
    onTouchStart={[Function]}
    tabIndex="0"
    type="button"
  >
    <span
      className="MuiButton-label-2"
    >
      Click to open your settings
    </span>
    <span
      className="MuiTouchRipple-root-46"
    />
  </button>
</div>
`;
